<?xml version="1.0" encoding="UTF-8"?>
<svg width="23px" height="17px" viewBox="0 0 23 17" version="1.1" xmlns="http://www.w3.org/2000/svg" xmlns:xlink="http://www.w3.org/1999/xlink">
    <!-- Generator: Sketch 47.1 (45422) - http://www.bohemiancoding.com/sketch -->
    <title>Camera Icon</title>
    <desc>Created with Sketch.</desc>
    <defs></defs>
    <g id="Symbols" stroke="none" stroke-width="1" fill="none" fill-rule="evenodd">
        <g id="Icons/Camera" transform="translate(-2.000000, -5.000000)" fill="#FFFFFF">
            <path d="M4.48813896,6.98965429 L4.48813896,6.120502 L6.84994407,6.120502 L6.84994407,6.98965429 L4.48813896,6.98965429 Z M22.136334,7.70433451 C23.4408377,7.70433451 24.4981391,8.76549044 24.4981391,10.0747498 L24.4981391,19.5745844 C24.4981391,20.8838438 23.4408377,21.9449997 22.136334,21.9449997 L4.86366597,21.9449997 C3.55916228,21.9449997 2.50186086,20.8838438 2.50186086,19.5745844 L2.50186086,10.0747498 C2.50186086,8.76549044 3.55916228,7.70433451 4.86366597,7.70433451 L7.74979182,7.70433451 C8.04423019,7.70433451 8.31898685,7.55657862 8.48195141,7.31084556 L9.71953728,5.44848925 C9.88250184,5.20275619 10.1572585,5.05500031 10.4516969,5.05500031 L16.5483031,5.05500031 C16.8427415,5.05500031 17.1174982,5.20275619 17.2804627,5.44848925 L18.5180486,7.31084556 C18.6810131,7.55657862 18.9557698,7.70433451 19.2502082,7.70433451 L22.136334,7.70433451 Z M20.6877602,10.0162796 L20.6877602,10.0020571 C20.6877602,9.61330899 20.3736401,9.29804375 19.9863041,9.29804375 L19.9721333,9.29804375 C19.5847972,9.29804375 19.2706772,9.61330899 19.2706772,10.0020571 L19.2706772,10.0162796 C19.2706772,10.4050277 19.5847972,10.720293 19.9721333,10.720293 L19.9863041,10.720293 C20.3736401,10.720293 20.6877602,10.4050277 20.6877602,10.0162796 Z M13.5,20.1956332 C16.2892918,20.1956332 18.5589865,17.9184542 18.5589865,15.1182035 C18.5589865,12.318743 16.2892918,10.0407739 13.5,10.0407739 C10.7107082,10.0407739 8.44101345,12.318743 8.44101345,15.1182035 C8.44101345,17.9184542 10.7107082,20.1956332 13.5,20.1956332 Z M13.5,11.1470467 C15.6870315,11.1470467 17.4591726,12.9264385 17.4591726,15.120653 C17.4591726,17.3156576 15.6870315,19.0942592 13.5,19.0942592 C11.3137557,19.0942592 9.54082736,17.3156576 9.54082736,15.120653 C9.54082736,12.9264385 11.3137557,11.1470467 13.5,11.1470467 Z" id="Camera-Icon"></path>
        </g>
    </g>
</svg>